module github.com/gitpod-io/leeway

go 1.17

require (
	github.com/GeertJohan/go.rice v1.0.2
	github.com/creack/pty v1.1.17
	github.com/daaku/go.zipexe v1.0.1 // indirect
	github.com/disiqueira/gotree v1.0.0
	github.com/fsnotify/fsnotify v1.5.1
	github.com/google/go-cmp v0.5.6
	github.com/gookit/color v1.5.0
	github.com/imdario/mergo v0.3.12
	github.com/karrick/godirwalk v1.16.1
	github.com/minio/highwayhash v1.0.2
	github.com/praetorian-inc/gokart v0.3.0
	github.com/segmentio/textio v1.2.0
	github.com/sirupsen/logrus v1.8.1
	github.com/spf13/cobra v1.2.1
	golang.org/x/mod v0.5.1
	golang.org/x/sync v0.0.0-20210220032951-036812b2e83c
	golang.org/x/sys v0.0.0-20211205182925-97ca703d548d // indirect
	golang.org/x/xerrors v0.0.0-20200804184101-5ec99f83aff1
	gopkg.in/yaml.v3 v3.0.0-20210107192922-496545a6307b
)

require (
	github.com/Microsoft/go-winio v0.5.1 // indirect
	github.com/ProtonMail/go-crypto v0.0.0-20211112122917-428f8eabeeb3 // indirect
	github.com/acomagu/bufpipe v1.0.3 // indirect
	github.com/emirpasic/gods v1.12.0 // indirect
	github.com/fatih/color v1.13.0 // indirect
	github.com/go-git/gcfg v1.5.0 // indirect
	github.com/go-git/go-billy/v5 v5.3.1 // indirect
	github.com/go-git/go-git/v5 v5.4.2 // indirect
	github.com/inconshreveable/mousetrap v1.0.0 // indirect
	github.com/jbenet/go-context v0.0.0-20150711004518-d14ea06fba99 // indirect
	github.com/kevinburke/ssh_config v1.1.0 // indirect
	github.com/mattn/go-colorable v0.1.12 // indirect
	github.com/mattn/go-isatty v0.0.14 // indirect
	github.com/mitchellh/go-homedir v1.1.0 // indirect
	github.com/owenrumney/go-sarif v1.0.12 // indirect
	github.com/segmentio/fasthash v1.0.3 // indirect
	github.com/sergi/go-diff v1.2.0 // indirect
	github.com/spf13/pflag v1.0.5 // indirect
	github.com/xanzy/ssh-agent v0.3.1 // indirect
	github.com/xo/terminfo v0.0.0-20210125001918-ca9a967f8778 // indirect
	github.com/zclconf/go-cty v1.10.0 // indirect
	golang.org/x/crypto v0.0.0-20211202192323-5770296d904e // indirect
	golang.org/x/net v0.0.0-20211205041911-012df41ee64c // indirect
	golang.org/x/text v0.3.7 // indirect
	golang.org/x/tools v0.1.8 // indirect
	gopkg.in/warnings.v0 v0.1.2 // indirect
)
